{
    "server": {
        "port": 3000,
        "secretKey": "HelloWorld"
    },
    "databases": {
        "mongoose": {
            "host": "localhost",
            "port": 3000,
            "dbName": "social-net-dev",
            "options": {
                "useNewUrlParser": true,
                "useUnifiedTopology": true,
                "useFindAndModify": true,
                "useCreateIndex": true
            }
        },
        "mysql": {}
        
    },
    "logger": {
        "level": "info"
    }
}